%YAML 1.1
%TAG !u! tag:unity3d.com,2011:
--- !u!114 &11400000
MonoBehaviour:
  m_ObjectHideFlags: 0
  m_CorrespondingSourceObject: {fileID: 0}
  m_PrefabInstance: {fileID: 0}
  m_PrefabAsset: {fileID: 0}
  m_GameObject: {fileID: 0}
  m_Enabled: 1
  m_EditorHideFlags: 0
  m_Script: {fileID: 11500000, guid: bbb281ee3bf0b054c82ac2347e9e782c, type: 3}
  m_Name: Group B
  m_EditorClassIdentifier: 
  m_GroupName: Group B
  m_Data:
    m_SerializedData: []
  m_GUID: 71b6b24d25a788648bb40e3aba8eb094
  m_SerializeEntries:
  - m_GUID: 6fcabe7ee1c4c7f489c38e3d6eaea1db
    m_Address: Assets/Scene B.unity
    m_ReadOnly: 0
    m_SerializedLabels:
    - Prefetch
    - B
    m_MainAsset: {fileID: 102900000, guid: 6fcabe7ee1c4c7f489c38e3d6eaea1db, type: 3}
    m_TargetAsset: {fileID: 102900000, guid: 6fcabe7ee1c4c7f489c38e3d6eaea1db, type: 3}
  m_ReadOnly: 0
  m_Settings: {fileID: 11400000, guid: d3a2fcf2023de3645ae4ded0a80987e8, type: 2}
  m_SchemaSet:
    m_Schemas:
    - {fileID: 11400000, guid: 748ff2946d6f8164f99c209a8d27805e, type: 2}
    - {fileID: 11400000, guid: 1de9116622fedf54caf10a8972666279, type: 2}
